{
  "name": "HotelHotelroom",
  "base": "PersistedModel",
  "idInjection": false,
  "options": {
    "validateUpsert": true
  },
  "postgresql": {
    "schema": "public",
    "table": "hotel_hotelroom"
  },
  "properties": {
    "id": {
      "type": "Number",
      "id": true,
      "required": true,
      "length": null,
      "precision": 32,
      "scale": 0,
      "postgresql": {
        "columnName": "id",
        "dataType": "integer",
        "dataLength": null,
        "dataPrecision": 32,
        "dataScale": 0,
        "nullable": "NO"
      },
      "_selectable": false
    },
    "name": {
      "type": "String",
      "required": true,
      "length": 255,
      "precision": null,
      "scale": null,
      "postgresql": {
        "columnName": "name",
        "dataType": "character varying",
        "dataLength": 255,
        "dataPrecision": null,
        "dataScale": null,
        "nullable": "NO"
      },
      "_selectable": false
    },
    "originalPrice": {
      "type": "Number",
      "required": true,
      "length": null,
      "precision": 53,
      "scale": null,
      "postgresql": {
        "columnName": "original_price",
        "dataType": "double precision",
        "dataLength": null,
        "dataPrecision": 53,
        "dataScale": null,
        "nullable": "NO"
      },
      "_selectable": false
    },
    "hotelId": {
      "type": "Number",
      "required": true,
      "length": null,
      "precision": 32,
      "scale": 0,
      "postgresql": {
        "columnName": "hotel_id",
        "dataType": "integer",
        "dataLength": null,
        "dataPrecision": 32,
        "dataScale": 0,
        "nullable": "NO"
      },
      "_selectable": false
    },
    "created": {
      "type": "String",
      "required": true,
      "length": null,
      "precision": null,
      "scale": null,
      "postgresql": {
        "columnName": "created",
        "dataType": "timestamp with time zone",
        "dataLength": null,
        "dataPrecision": null,
        "dataScale": null,
        "nullable": "NO"
      },
      "_selectable": false
    },
    "updated": {
      "type": "String",
      "required": true,
      "length": null,
      "precision": null,
      "scale": null,
      "postgresql": {
        "columnName": "updated",
        "dataType": "timestamp with time zone",
        "dataLength": null,
        "dataPrecision": null,
        "dataScale": null,
        "nullable": "NO"
      },
      "_selectable": false
    },
    "image": {
      "type": "String",
      "required": true,
      "length": null,
      "precision": null,
      "scale": null,
      "postgresql": {
        "columnName": "image",
        "dataType": "text",
        "dataLength": null,
        "dataPrecision": null,
        "dataScale": null,
        "nullable": "NO"
      },
      "_selectable": false
    },
    "compBreakfast": {
      "type": "Boolean",
      "required": true,
      "length": null,
      "precision": null,
      "scale": null,
      "postgresql": {
        "columnName": "comp_breakfast",
        "dataType": "boolean",
        "dataLength": null,
        "dataPrecision": null,
        "dataScale": null,
        "nullable": "NO"
      },
      "_selectable": false
    },
    "miniFridge": {
      "type": "Boolean",
      "required": true,
      "length": null,
      "precision": null,
      "scale": null,
      "postgresql": {
        "columnName": "mini_fridge",
        "dataType": "boolean",
        "dataLength": null,
        "dataPrecision": null,
        "dataScale": null,
        "nullable": "NO"
      },
      "_selectable": false
    },
    "numBeds": {
      "type": "Number",
      "required": true,
      "length": null,
      "precision": 32,
      "scale": 0,
      "postgresql": {
        "columnName": "num_beds",
        "dataType": "integer",
        "dataLength": null,
        "dataPrecision": 32,
        "dataScale": 0,
        "nullable": "NO"
      },
      "_selectable": false
    },
    "roomService": {
      "type": "Boolean",
      "required": true,
      "length": null,
      "precision": null,
      "scale": null,
      "postgresql": {
        "columnName": "room_service",
        "dataType": "boolean",
        "dataLength": null,
        "dataPrecision": null,
        "dataScale": null,
        "nullable": "NO"
      },
      "_selectable": false
    },
    "tv": {
      "type": "Boolean",
      "required": true,
      "length": null,
      "precision": null,
      "scale": null,
      "postgresql": {
        "columnName": "tv",
        "dataType": "boolean",
        "dataLength": null,
        "dataPrecision": null,
        "dataScale": null,
        "nullable": "NO"
      },
      "_selectable": false
    },
    "isActive": {
      "type": "Boolean",
      "required": true,
      "length": null,
      "precision": null,
      "scale": null,
      "postgresql": {
        "columnName": "is_active",
        "dataType": "boolean",
        "dataLength": null,
        "dataPrecision": null,
        "dataScale": null,
        "nullable": "NO"
      },
      "_selectable": false
    },
    "inventoryDaysleft1": {
      "type": "Number",
      "required": true,
      "length": null,
      "precision": 32,
      "scale": 0,
      "postgresql": {
        "columnName": "inventory_daysleft_1",
        "dataType": "integer",
        "dataLength": null,
        "dataPrecision": 32,
        "dataScale": 0,
        "nullable": "NO"
      },
      "_selectable": false
    },
    "inventoryDaysleft2": {
      "type": "Number",
      "required": true,
      "length": null,
      "precision": 32,
      "scale": 0,
      "postgresql": {
        "columnName": "inventory_daysleft_2",
        "dataType": "integer",
        "dataLength": null,
        "dataPrecision": 32,
        "dataScale": 0,
        "nullable": "NO"
      },
      "_selectable": false
    },
    "inventoryDaysleft3": {
      "type": "Number",
      "required": true,
      "length": null,
      "precision": 32,
      "scale": 0,
      "postgresql": {
        "columnName": "inventory_daysleft_3",
        "dataType": "integer",
        "dataLength": null,
        "dataPrecision": 32,
        "dataScale": 0,
        "nullable": "NO"
      },
      "_selectable": false
    },
    "inventoryDaysleft4": {
      "type": "Number",
      "required": true,
      "length": null,
      "precision": 32,
      "scale": 0,
      "postgresql": {
        "columnName": "inventory_daysleft_4",
        "dataType": "integer",
        "dataLength": null,
        "dataPrecision": 32,
        "dataScale": 0,
        "nullable": "NO"
      },
      "_selectable": false
    },
    "inventoryDaysleft5": {
      "type": "Number",
      "required": true,
      "length": null,
      "precision": 32,
      "scale": 0,
      "postgresql": {
        "columnName": "inventory_daysleft_5",
        "dataType": "integer",
        "dataLength": null,
        "dataPrecision": 32,
        "dataScale": 0,
        "nullable": "NO"
      },
      "_selectable": false
    },
    "inventoryDaysleft6": {
      "type": "Number",
      "required": true,
      "length": null,
      "precision": 32,
      "scale": 0,
      "postgresql": {
        "columnName": "inventory_daysleft_6",
        "dataType": "integer",
        "dataLength": null,
        "dataPrecision": 32,
        "dataScale": 0,
        "nullable": "NO"
      },
      "_selectable": false
    },
    "inventoryDaysleft7": {
      "type": "Number",
      "required": true,
      "length": null,
      "precision": 32,
      "scale": 0,
      "postgresql": {
        "columnName": "inventory_daysleft_7",
        "dataType": "integer",
        "dataLength": null,
        "dataPrecision": 32,
        "dataScale": 0,
        "nullable": "NO"
      },
      "_selectable": false
    },
    "discountDaysleft1": {
      "type": "Number",
      "required": true,
      "length": null,
      "precision": 53,
      "scale": null,
      "postgresql": {
        "columnName": "discount_daysleft_1",
        "dataType": "double precision",
        "dataLength": null,
        "dataPrecision": 53,
        "dataScale": null,
        "nullable": "NO"
      },
      "_selectable": false
    },
    "discountDaysleft2": {
      "type": "Number",
      "required": true,
      "length": null,
      "precision": 53,
      "scale": null,
      "postgresql": {
        "columnName": "discount_daysleft_2",
        "dataType": "double precision",
        "dataLength": null,
        "dataPrecision": 53,
        "dataScale": null,
        "nullable": "NO"
      },
      "_selectable": false
    },
    "discountDaysleft3": {
      "type": "Number",
      "required": true,
      "length": null,
      "precision": 53,
      "scale": null,
      "postgresql": {
        "columnName": "discount_daysleft_3",
        "dataType": "double precision",
        "dataLength": null,
        "dataPrecision": 53,
        "dataScale": null,
        "nullable": "NO"
      },
      "_selectable": false
    },
    "discountDaysleft4": {
      "type": "Number",
      "required": true,
      "length": null,
      "precision": 53,
      "scale": null,
      "postgresql": {
        "columnName": "discount_daysleft_4",
        "dataType": "double precision",
        "dataLength": null,
        "dataPrecision": 53,
        "dataScale": null,
        "nullable": "NO"
      },
      "_selectable": false
    },
    "discountDaysleft5": {
      "type": "Number",
      "required": true,
      "length": null,
      "precision": 53,
      "scale": null,
      "postgresql": {
        "columnName": "discount_daysleft_5",
        "dataType": "double precision",
        "dataLength": null,
        "dataPrecision": 53,
        "dataScale": null,
        "nullable": "NO"
      },
      "_selectable": false
    },
    "discountDaysleft6": {
      "type": "Number",
      "required": true,
      "length": null,
      "precision": 53,
      "scale": null,
      "postgresql": {
        "columnName": "discount_daysleft_6",
        "dataType": "double precision",
        "dataLength": null,
        "dataPrecision": 53,
        "dataScale": null,
        "nullable": "NO"
      },
      "_selectable": false
    },
    "discountDaysleft7": {
      "type": "Number",
      "required": true,
      "length": null,
      "precision": 53,
      "scale": null,
      "postgresql": {
        "columnName": "discount_daysleft_7",
        "dataType": "double precision",
        "dataLength": null,
        "dataPrecision": 53,
        "dataScale": null,
        "nullable": "NO"
      },
      "_selectable": false
    }
  },
  "validations": [],
  "relations": {
    "hotelHotelAvailabaility": {
      "type": "hasMany",
      "model": "HotelHotelavailability",
      "foreignKey": "roomId"
    }
  },
  "acls": [],
  "methods": []
}
