{
  "db": {
    "name": "db",
    "connector": "memory"
  },
  "mrHotelPG": {
    "host": "localhost",
    "port": 5432,
    "url": "postgres://postgres:postgres@localhost:5432/mrHotel",
    "database": "mrHotel",
    "password": "postgres",
    "name": "mrHotelPG",
    "user": "postgres",
    "connector": "postgresql"
  }
}
