{
  "_meta": {
    "sources": [
      "loopback/common/models",
      "loopback/server/models",
      "../common/models",
      "./models"
    ],
    "mixins": [
      "loopback/common/mixins",
      "loopback/server/mixins",
      "../common/mixins",
      "./mixins"
    ]
  },
  "User": {
    "dataSource": "db"
  },
  "AccessToken": {
    "dataSource": "db",
    "public": false
  },
  "ACL": {
    "dataSource": "db",
    "public": false
  },
  "RoleMapping": {
    "dataSource": "db",
    "public": false
  },
  "Role": {
    "dataSource": "db",
    "public": false
  },
  "HotelHotelroom": {
    "dataSource": "mrHotelPG",
    "public": true
  },
  "HotelPlace": {
    "dataSource": "mrHotelPG",
    "public": true
  },
  "HotelReview": {
    "dataSource": "mrHotelPG",
    "public": true
  },
  "HotelInventorychangelog": {
    "dataSource": "mrHotelPG",
    "public": true
  },
  "HotelHotelrule": {
    "dataSource": "mrHotelPG",
    "public": true
  },
  "HotelInterswitchtransaction": {
    "dataSource": "mrHotelPG",
    "public": true
  },
  "AuthenticationUserUserPermissions": {
    "dataSource": "mrHotelPG",
    "public": true
  },
  "HotelHotelavailability": {
    "dataSource": "mrHotelPG",
    "public": true
  },
  "HotelBooking": {
    "dataSource": "mrHotelPG",
    "public": true
  },
  "AuthenticationUser": {
    "dataSource": "mrHotelPG",
    "public": true
  },
  "AuthenticationUserGroups": {
    "dataSource": "mrHotelPG",
    "public": true
  },
  "HotelHotel": {
    "dataSource": "mrHotelPG",
    "public": true
  },
  "AuthGroupPermissions": {
    "dataSource": "mrHotelPG",
    "public": true
  },
  "AuthGroup": {
    "dataSource": "mrHotelPG",
    "public": true
  },
  "AuthPermission": {
    "dataSource": "mrHotelPG",
    "public": true
  },
  "xxx": {
    "dataSource": "db",
    "public": true
  }
}
